﻿//  Post result Back ↓↓↓↓ :
{"result":["efb11013720fd6ac87ea80517521b4af7e3ae056169731a8f02f230c0eabbe18",
"342bc4e2948f5e51a34b14f4422da2d33e3ae7ec76b014f7583e8c2451d56033",
"b9f5f52cc165fdd02de87a9d273282f37168a7f6d821b393dff05de25f38a1f8",
"27dbc23fa889b0803f5a45e5dd9546fb949b510aea92663df3b58d2c4ba2cccd"],

"id":"44mwgt9",
"total":4}


// Send Get Example URL:  (Combined from POST Result)
https://web.poe.garena.tw/api/trade/fetch/
efb11013720fd6ac87ea80517521b4af7e3ae056169731a8f02f230c0eabbe18,
342bc4e2948f5e51a34b14f4422da2d33e3ae7ec76b014f7583e8c2451d56033,
b9f5f52cc165fdd02de87a9d273282f37168a7f6d821b393dff05de25f38a1f8,
27dbc23fa889b0803f5a45e5dd9546fb949b510aea92663df3b58d2c4ba2cccd,
08f360e5efe1009007883025e5f643fc1b5969aa6064fa7777247dff9602eb23,
4de25f30cc567f6012d883c8d28425bf190d0554e7ed946f63fcaaae622b6e08?
query=44mwgt9






//  ----------------------------------------------------------------------------------------------------------------------------
// --------------------------------NOTE---------------------------------------------------------------------------------------------
//  Post will get a lot of item iid back ，you need to combine max 10 idd in one url  to get data 
//  So, if you have 26 item back, you need to combine 3 url to get all data

{{
  "result": [
    "eadfa267137bcd841f1511671de40bad40b4a55b6b5c65aac08ef54c36a5b5e6",
    "f0aa20f62f553e600d7e071a642b78e27c07f9af7bd502e35111f1838aff4cdb",
    "fcbc03539e1a29e5d1868e5caff88ca54241869ee0dcc8fff36f6e2888111ad0",
    "b529fe2c811b8f77932909aa47c4f590e12a292c7dd387e0ceee4f552bd77b18",
    "80bc4957ae322569138dc2fce3c768c151671f819d31797294954a7fd7223dd3",
    "78f5451c2e6ca58f5468034b225e02ffb093e1705ba8cfeafedd99c7679303b7",
    "c0d733e39120f3f43c40cdf7dcf28f2014bcb36e7077dfa47d69f37bcefcacd8",
    "e53a0ba8687cffcd38e12f9cb1a6755215911375341eefd1fffa4d7be6dcd39f",
    "6e27a559b25cb970b41f272153fc7a1d06997ef5edc8a8530d22f1f31c11d78e",
    "1c7699978829cbdc0807058426347b612f4c6306472383787b9f9c9705359811",
    "afef4795b0cd4848406bbdde300f3238c7f29bd2d7d9db2734d87abcc4b643c3",
    "eb5537e14b72c51b1edd741ba9a22e6423b18f05f14e9b0363d0b494f51d6d46",
    "560e8dc9c634651e97b7552cf03981bee458ee4f63df5b87588de6f221018033",
    "b2a215d83867bd039f92dfbd1c6a1d322ea9f8f7eae0ffb8209833f60527c5a1",
    "4df0898430c277680977c67a54f7ca9c89481d3f072e5b7c1645752422551ffe",
    "abf73462f053837c0d0be9f033a5e5be6bedc996bc006b3ac6020f9169aba34a",
    "e5eff5a9fcae00321bdc0c4b4c94fda4694f64b7ccb8fa94df1cd3ab7871ea0d",
    "8af012710803e9e93c2860ee778d06c61565b7631713153b70239ddf38bed12e",
    "294884e61054e0d6d1a2abd975a788bb5a91dabd117f4f305f37d6ed1848bd4f",
    "b384322af5738a743abff721b96e12965427a5afba309e2c5dcf294520eb425b",
    "84f78399f0d1edbd138626636da266ccd1e0071fd009006bcb8f46e761af90a6",
    "cac1bd39a1ed7820143c3c78e3ff7f2b9f9c50d187e967ebde77ad1586c0d075",
    "f0a4dff91db8402955cd650eda524ac2f5308ea50c1ef1d69a7e928904c28876",
    "1c46ce579dafdbd2403e6ccaa2b29910de59023bd32d562acc69001c1ed417e5",
    "80fe9f0b3c336299a319267745d23019babc5db33e88b2c9a11c8d3de637e2db",
    "0bbeebc06a7e6c953ee273ae966ceaf3531b8ae6be1821fd408c8337613e3a11"
  ],
  "id": "5P9yVTa",
  "total": 26
}}



"https://web.poe.garena.tw/api/trade/fetch/eadfa267137bcd841f1511671de40bad40b4a55b6b5c65aac08ef54c36a5b5e6,
f0aa20f62f553e600d7e071a642b78e27c07f9af7bd502e35111f1838aff4cdb,fcbc03539e1a29e5d1868e5caff88ca54241869ee0dcc8fff36f6e2888111ad0,b529fe2c811b8f77932909aa47c4f590e12a292c7dd387e0ceee4f552bd77b18,80bc4957ae322569138dc2fce3c768c151671f819d31797294954a7fd7223dd3,78f5451c2e6ca58f5468034b225e02ffb093e1705ba8cfeafedd99c7679303b7,c0d733e39120f3f43c40cdf7dcf28f2014bcb36e7077dfa47d69f37bcefcacd8,e53a0ba8687cffcd38e12f9cb1a6755215911375341eefd1fffa4d7be6dcd39f,6e27a559b25cb970b41f272153fc7a1d06997ef5edc8a8530d22f1f31c11d78e,1c7699978829cbdc0807058426347b612f4c6306472383787b9f9c9705359811?query=5P9yVTa"

"https://web.poe.garena.tw/api/trade/fetch/afef4795b0cd4848406bbdde300f3238c7f29bd2d7d9db2734d87abcc4b643c3,eb5537e14b72c51b1edd741ba9a22e6423b18f05f14e9b0363d0b494f51d6d46,560e8dc9c634651e97b7552cf03981bee458ee4f63df5b87588de6f221018033,b2a215d83867bd039f92dfbd1c6a1d322ea9f8f7eae0ffb8209833f60527c5a1,4df0898430c277680977c67a54f7ca9c89481d3f072e5b7c1645752422551ffe,abf73462f053837c0d0be9f033a5e5be6bedc996bc006b3ac6020f9169aba34a,e5eff5a9fcae00321bdc0c4b4c94fda4694f64b7ccb8fa94df1cd3ab7871ea0d,8af012710803e9e93c2860ee778d06c61565b7631713153b70239ddf38bed12e,294884e61054e0d6d1a2abd975a788bb5a91dabd117f4f305f37d6ed1848bd4f,b384322af5738a743abff721b96e12965427a5afba309e2c5dcf294520eb425b?query=5P9yVTa"

"https://web.poe.garena.tw/api/trade/fetch/84f78399f0d1edbd138626636da266ccd1e0071fd009006bcb8f46e761af90a6,cac1bd39a1ed7820143c3c78e3ff7f2b9f9c50d187e967ebde77ad1586c0d075,f0a4dff91db8402955cd650eda524ac2f5308ea50c1ef1d69a7e928904c28876,1c46ce579dafdbd2403e6ccaa2b29910de59023bd32d562acc69001c1ed417e5,80fe9f0b3c336299a319267745d23019babc5db33e88b2c9a11c8d3de637e2db,0bbeebc06a7e6c953ee273ae966ceaf3531b8ae6be1821fd408c8337613e3a11?query=5P9yVTa"

